Student,Subject,Exam,EventDate,MaxPoints,PointsEarned
"Amber, Alice",English,Exam 1,11/7/2017,50,27
"Amber, Alice",English,Exam 1,2/9/2026,50,0
"Amber, Alice",English,Exam 2,9/7/2018,50,38
"Amber, Alice",English,Exam 2,11/30/2021,50,31
"Amber, Alice",English,Exam 3,11/14/2025,50,44
"Amber, Alice",English,Exam 3,2/8/2026,50,37
"Amber, Alice",English,Exam 3,7/5/2017,50,32
"Amber, Alice",English,Exam 3,9/19/2025,50,27
"Amber, Alice",English,Exam 4,5/2/2026,50,13
"Amber, Alice",English,Exam 4,7/10/2021,50,29
"Amber, Alice",Math,Exam 1,6/1/2022,75,18
"Amber, Alice",Math,Exam 1,7/4/2024,75,35
"Amber, Alice",Math,Exam 2,2/15/2026,75,4
"Amber, Alice",Math,Exam 3,8/21/2021,75,0
"Amber, Alice",Math,Exam 3,8/29/2018,75,58
"Amber, Alice",Math,Exam 3,8/20/2018,75,21
"Amber, Alice",Math,Exam 4,3/4/2024,75,61
"Amber, Alice",Math,Exam 4,11/22/2025,75,6
"Amber, Alice",Math,Exam 4,5/25/2025,75,66
"Amber, Alice",Math,Exam 4,1/24/2022,75,70
"Amber, Alice",Science,Exam 1,8/30/2019,100,71
"Amber, Alice",Science,Exam 1,4/4/2023,100,53
"Amber, Alice",Science,Exam 1,1/9/2023,100,21
"Amber, Alice",Science,Exam 1,3/28/2024,100,16
"Amber, Alice",Science,Exam 1,6/6/2018,100,0
"Amber, Alice",Science,Exam 3,7/11/2021,100,33
"Amber, Alice",Science,Exam 3,9/3/2025,100,7
"Amber, Alice",Science,Exam 3,7/19/2026,100,10
"Amber, Alice",Science,Exam 3,5/8/2021,100,24
"Amber, Alice",Science,Exam 4,8/10/2017,100,68
"Black, Bruno",English,Exam 1,4/20/2023,50,12
"Black, Bruno",English,Exam 1,12/4/2025,50,48
"Black, Bruno",English,Exam 1,2/2/2018,50,47
"Black, Bruno",English,Exam 1,7/5/2020,50,4
"Black, Bruno",English,Exam 1,8/6/2017,50,13
"Black, Bruno",English,Exam 1,10/6/2021,50,3
"Black, Bruno",English,Exam 1,6/11/2018,50,29
"Black, Bruno",English,Exam 2,7/27/2017,50,10
"Black, Bruno",English,Exam 2,3/30/2019,50,36
"Black, Bruno",English,Exam 2,12/11/2025,50,33
"Black, Bruno",English,Exam 2,10/4/2020,50,5
"Black, Bruno",English,Exam 3,7/25/2022,50,18
"Black, Bruno",English,Exam 3,9/25/2025,50,5
"Black, Bruno",English,Exam 3,5/6/2023,50,47
"Black, Bruno",English,Exam 3,8/10/2026,50,5
"Black, Bruno",English,Exam 4,3/31/2021,50,3
"Black, Bruno",English,Exam 4,9/4/2021,50,16
"Black, Bruno",English,Exam 4,2/17/2020,50,11
"Black, Bruno",English,Exam 4,10/28/2026,50,37
"Black, Bruno",English,Exam 4,1/17/2022,50,35
"Black, Bruno",Math,Exam 1,3/30/2026,75,21
"Black, Bruno",Math,Exam 1,9/27/2018,75,62
"Black, Bruno",Math,Exam 1,3/25/2023,75,59
"Black, Bruno",Math,Exam 1,3/7/2019,75,13
"Black, Bruno",Math,Exam 1,7/17/2026,75,60
"Black, Bruno",Math,Exam 1,3/10/2025,75,57
"Black, Bruno",Math,Exam 2,2/21/2020,75,31
"Black, Bruno",Math,Exam 2,2/6/2018,75,7
"Black, Bruno",Math,Exam 2,11/19/2023,75,74
"Black, Bruno",Math,Exam 2,4/14/2024,75,1
"Black, Bruno",Math,Exam 2,11/11/2024,75,20
"Black, Bruno",Math,Exam 2,3/31/2021,75,36
"Black, Bruno",Math,Exam 3,6/26/2017,75,20
"Black, Bruno",Math,Exam 3,12/1/2017,75,64
"Black, Bruno",Math,Exam 4,1/23/2023,75,43
"Black, Bruno",Math,Exam 4,8/30/2017,75,6
"Black, Bruno",Math,Exam 4,11/22/2017,75,65
"Black, Bruno",Math,Exam 4,12/13/2021,75,55
"Black, Bruno",Math,Exam 4,4/9/2019,75,29
"Black, Bruno",Math,Exam 4,11/22/2024,75,62
"Black, Bruno",Science,Exam 1,6/12/2017,100,29
"Black, Bruno",Science,Exam 1,2/20/2018,100,60
"Black, Bruno",Science,Exam 1,8/10/2024,100,95
"Black, Bruno",Science,Exam 1,8/3/2019,100,80
"Black, Bruno",Science,Exam 1,12/5/2022,100,38
"Black, Bruno",Science,Exam 1,1/12/2021,100,37
"Black, Bruno",Science,Exam 1,4/4/2017,100,49
"Black, Bruno",Science,Exam 1,12/30/2020,100,76
"Black, Bruno",Science,Exam 1,4/14/2023,100,9
"Black, Bruno",Science,Exam 1,5/21/2023,100,80
"Black, Bruno",Science,Exam 2,12/29/2019,100,94
"Black, Bruno",Science,Exam 2,4/15/2026,100,4
"Black, Bruno",Science,Exam 3,12/15/2017,100,69
"Black, Bruno",Science,Exam 3,2/7/2022,100,53
"Black, Bruno",Science,Exam 3,5/18/2020,100,72
"Black, Bruno",Science,Exam 3,12/27/2026,100,21
"Black, Bruno",Science,Exam 3,6/28/2018,100,96
"Black, Bruno",Science,Exam 4,6/21/2020,100,21
"Black, Bruno",Science,Exam 4,6/22/2023,100,65
"Black, Bruno",Science,Exam 4,6/26/2022,100,27
"Coelho, Cyril",English,Exam 2,1/7/2021,50,30
"Coelho, Cyril",English,Exam 2,6/5/2022,50,23
"Coelho, Cyril",English,Exam 2,6/25/2019,50,2
"Coelho, Cyril",English,Exam 3,2/22/2022,50,23
"Coelho, Cyril",English,Exam 3,11/11/2023,50,38
"Coelho, Cyril",English,Exam 3,8/13/2024,50,10
"Coelho, Cyril",English,Exam 3,6/21/2018,50,45
"Coelho, Cyril",English,Exam 4,9/21/2026,50,46
"Coelho, Cyril",English,Exam 4,9/11/2017,50,23
"Coelho, Cyril",English,Exam 4,12/9/2024,50,9
"Coelho, Cyril",Math,Exam 1,8/21/2018,75,33
"Coelho, Cyril",Math,Exam 1,5/17/2018,75,74
"Coelho, Cyril",Math,Exam 1,11/30/2019,75,51
"Coelho, Cyril",Math,Exam 1,3/3/2025,75,16
"Coelho, Cyril",Math,Exam 2,5/6/2026,75,72
"Coelho, Cyril",Math,Exam 2,5/24/2023,75,55
"Coelho, Cyril",Math,Exam 3,9/20/2020,75,36
"Coelho, Cyril",Math,Exam 3,10/17/2020,75,16
"Coelho, Cyril",Math,Exam 3,3/26/2021,75,3
"Coelho, Cyril",Math,Exam 4,2/17/2017,75,48
"Coelho, Cyril",Science,Exam 1,10/17/2018,100,53
"Coelho, Cyril",Science,Exam 1,4/10/2020,100,23
"Coelho, Cyril",Science,Exam 1,12/26/2019,100,20
"Coelho, Cyril",Science,Exam 1,7/28/2018,100,36
"Coelho, Cyril",Science,Exam 2,4/18/2017,100,32
"Coelho, Cyril",Science,Exam 2,3/28/2025,100,75
"Coelho, Cyril",Science,Exam 2,8/27/2021,100,73
"Coelho, Cyril",Science,Exam 3,10/30/2017,100,14
"Coelho, Cyril",Science,Exam 3,10/28/2026,100,32
"Coelho, Cyril",Science,Exam 3,7/26/2020,100,85
